…
``` r
precip_df = 
  bind_rows(precip_2018, precip_2017)
```

``` r
left_join(precip_df, month_df, by = 'month')
```

    ## # A tibble: 24 x 4
    ##     year month total month_name
    ##    <dbl> <dbl> <dbl> <chr>     
    ##  1  2018     1  0.94 January   
    ##  2  2018     2  4.8  February  
    ##  3  2018     3  2.69 March     
    ##  4  2018     4  4.69 April     
    ##  5  2018     5  9.27 May       
    ##  6  2018     6  4.77 June      
    ##  7  2018     7 10.2  July      
    ##  8  2018     8  6.45 August    
    ##  9  2018     9 10.5  September 
    ## 10  2018    10  2.12 October   
    ## # ... with 14 more rows
…
    ## See spec(...) for full column specifications.

``` r
janitor::clean_names(NYC_data)
```

    ## # A tibble: 1,868 x 32
    ##    division line  station_name station_latitude station_longitu~ route1 route2
    ##    <chr>    <chr> <chr>                   <dbl>            <dbl> <chr>  <chr> 
    ##  1 BMT      4 Av~ 25th St                  40.7            -74.0 R      <NA>  
    ##  2 BMT      4 Av~ 25th St                  40.7            -74.0 R      <NA>  
    ##  3 BMT      4 Av~ 36th St                  40.7            -74.0 N      R     
    ##  4 BMT      4 Av~ 36th St                  40.7            -74.0 N      R     
    ##  5 BMT      4 Av~ 36th St                  40.7            -74.0 N      R     
    ##  6 BMT      4 Av~ 45th St                  40.6            -74.0 R      <NA>  
    ##  7 BMT      4 Av~ 45th St                  40.6            -74.0 R      <NA>  
    ##  8 BMT      4 Av~ 45th St                  40.6            -74.0 R      <NA>  
    ##  9 BMT      4 Av~ 45th St                  40.6            -74.0 R      <NA>  
    ## 10 BMT      4 Av~ 53rd St                  40.6            -74.0 R      <NA>  
    ## # ... with 1,858 more rows, and 25 more variables: route3 <chr>, route4 <chr>,
    ## #   route5 <chr>, route6 <chr>, route7 <chr>, route8 <dbl>, route9 <dbl>,
    ## #   route10 <dbl>, route11 <dbl>, entrance_type <chr>, entry <chr>,
    ## #   exit_only <chr>, vending <chr>, staffing <chr>, staff_hours <chr>,
    ## #   ada <lgl>, ada_notes <chr>, free_crossover <lgl>, north_south_street <chr>,
    ## #   east_west_street <chr>, corner <chr>, entrance_latitude <dbl>,
    ## #   entrance_longitude <dbl>, station_location <chr>, entrance_location <chr>
…
